{
  "name": "chatbot_session_rel",
  "base": "PersistedModel",
  "idInjection": false,
  "options": {
    "validateUpsert": true,
    "mysql": {
      "table": "chatbot_sds_port_his_tb"
    }
  },
  "properties": {
    "session_id": {
      "type": "string",
      "id": true,
      "required": true
    },
    "bot_id": {
      "type": "number",
      "required": true
    },
    "his_id": {
      "type": "number",
      "required": true
    }
  },
  "validations": [],
  "relations": {
    "dlgHistorys": {
      "type": "hasMany",
      "model": "dlg_history",
      "foreignKey": "session_id"
    },
    "chatbot": {
      "type": "belongsTo",
      "model": "chatbot_info",
      "foreignKey": "bot_id"
    }
  },
  "acls": [],
  "methods": {}
}
