{
  "name": "cm_cd_group",
  "base": "PersistedModel",
  "idInjection": false,
  "options": {
    "validateUpsert": true,
    "mysql": {
      "table": "cm_cd_group_tb"
    }
  },
  "scope": {
    "include": [
      "details"
    ]
  },
  "properties": {
    "group_code": {
      "type": "string",
      "id": true,
      "required": true
    },
    "code_name": {
      "type": "string",
      "required": true
    },
    "use_yn": {
      "type": "string",
      "required": true
    },
    "descript": {
      "type": "string"
    },
    "created_dtm": {
      "type": "date"
    },
    "updated_dtm": {
      "type": "date"
    },
    "creator_id": {
      "type": "string"
    },
    "updator_id": {
      "type": "string"
    }
  },
  "validations": [],
  "relations": {
    "details": {
      "type": "hasMany",
      "model": "cm_cd_detail",
      "foreignKey": "group_code"
    }
  },
  "acls": [
    {
      "accessType": "*",
      "principalType": "ROLE",
      "principalId": "$everyone",
      "permission": "DENY",
      "property": "*"
    },
    {
      "accessType": "*",
      "principalType": "ROLE",
      "principalId": "ADMIN",
      "permission": "ALLOW",
      "property": "*"
    }
  ],
  "methods": {}
}
