{
  "name": "srch_morpheme",
  "base": "PersistedModel",
  "idInjection": false,
  "options": {
    "validateUpsert": true,
    "mysql": {
      "table": "srch_morpheme_tb"
    }
  },
  "scope": {},
  "properties": {
    "MORPH_NO": {
      "type": "number",
      "id": true
    },
    "KEYWORD": {
      "type": "string",
      "required": true
    },
    "MORPH_TAG": {
      "type": "string",
      "required": true
    },
    "MEAN_CLASSIFICATION": {
      "type": "string"
    },
    "LAST_MORPH": {
      "type": "string"
    },
    "STATUS": {
      "type": "string",
      "default": "Y"
    },
    "TYPE": {
      "type": "string"
    },
    "MORPH_INDEX_INFO": {
      "type": "string"
    }
  },
  "validations": [],
  "relations": {},
  "acls": [
    {
      "accessType": "*",
      "principalType": "ROLE",
      "principalId": "$everyone",
      "permission": "DENY",
      "property": "*"
    },
    {
      "accessType": "*",
      "principalType": "ROLE",
      "principalId": "ADMIN",
      "permission": "ALLOW",
      "property": "*"
    },
    {
      "accessType": "*",
      "principalType": "ROLE",
      "principalId": "SERVICE_ADMIN",
      "permission": "ALLOW",
      "property": "*"
    },
    {
      "accessType": "*",
      "principalType": "ROLE",
      "principalId": "OPERATOR",
      "permission": "ALLOW",
      "property": "*"
    }
  ],
  "methods": {}
}
