{
  "restApiKey": "7c3a778e29ac522de62c4e22aa90c9",
  "restApiRoot": "/admin-api/v1",
  "host": "0.0.0.0",
  "port": 19920,
  "url": "http://0.0.0.0:19920",
  "appUrl": "http://0.0.0.0:19920",
  "grpc": {
    "protos": {
      "entry": "include"
    }
  },
  "NodeCache":
    { "stdTTL": 60, "checkperiod": 0 }
}
