<?xml version="1.0" encoding="utf-8"?>
<!-- Generator: Adobe Illustrator 22.1.0, SVG Export Plug-In . SVG Version: 6.00 Build 0)  -->
<svg version="1.1" id="Layer_1" xmlns="http://www.w3.org/2000/svg" xmlns:xlink="http://www.w3.org/1999/xlink" x="0px" y="0px"
	 viewBox="0 0 46 46" style="enable-background:new 0 0 46 46;" xml:space="preserve">
<style type="text/css">
	.st0{fill:#FFFFFF;}
	.st1{fill:#616870;}
	.st2{fill:#5F83F2;}
</style>
<path class="st0" d="M23,11.9c-1.4,0-2.7,0.9-3.2,2.3c-0.5,1.8,0.4,3.6,2.2,4.2c0.8,0.3,1.8,0.2,2.5-0.2c0.8-0.4,1.4-1.1,1.6-2h0
	c0.5-1.8-0.4-3.6-2.2-4.2C23.7,11.9,23.3,11.9,23,11.9z"/>
<g>
	<g>
		<path class="st0" d="M34.7,31.1H11.3V16c0-0.6,0.4-1,1-1h21.5c0.6,0,1,0.4,1,1V31.1z"/>
		<g>
			<path class="st1" d="M34.5,31.4c-0.1,0-0.2-0.1-0.2-0.2V15.7c0-0.2-0.1-0.3-0.3-0.3h-6.2c-0.1,0-0.2-0.1-0.2-0.2s0.1-0.2,0.2-0.2
				H34c0.4,0,0.7,0.3,0.7,0.7v15.4C34.7,31.3,34.6,31.4,34.5,31.4z"/>
		</g>
		<g>
			<path class="st1" d="M11.5,31.4c-0.1,0-0.2-0.1-0.2-0.2V15.7c0-0.4,0.3-0.7,0.7-0.7h7.1c0.1,0,0.2,0.1,0.2,0.2s-0.1,0.2-0.2,0.2
				H12c-0.2,0-0.3,0.1-0.3,0.3v15.4C11.7,31.3,11.6,31.4,11.5,31.4z"/>
		</g>
		<g>
			<g>
				<path class="st2" d="M32.8,16.5h-4.6c0,0.2,0,0.4-0.1,0.5c-0.5,2.5-3,4.2-5.5,3.7c-2.1-0.4-3.6-2.2-3.7-4.2h-5.6
					c-0.2,0-0.4,0.2-0.4,0.4v12.4c0,0.2,0.2,0.4,0.4,0.4h19.5c0.2,0,0.4-0.2,0.4-0.4V17C33.2,16.7,33,16.5,32.8,16.5z"/>
				<path class="st1" d="M32.8,30H13.2c-0.4,0-0.7-0.3-0.7-0.7V17c0-0.4,0.3-0.7,0.7-0.7h5.6c0.1,0,0.2,0.1,0.2,0.2
					c0.2,2,1.6,3.6,3.6,4c1.2,0.2,2.4,0,3.3-0.7c1-0.7,1.7-1.7,1.9-2.8c0-0.2,0.1-0.3,0.1-0.5c0-0.1,0.1-0.2,0.2-0.2h4.6
					c0.4,0,0.7,0.3,0.7,0.7v12.4C33.4,29.7,33.1,30,32.8,30z M13.2,16.7c-0.1,0-0.2,0.1-0.2,0.2v12.4c0,0.1,0.1,0.2,0.2,0.2h19.5
					c0.1,0,0.2-0.1,0.2-0.2V17c0-0.1-0.1-0.2-0.2-0.2h-4.4c0,0.1,0,0.2-0.1,0.4c-0.3,1.3-1,2.4-2.1,3.1c-1.1,0.7-2.4,1-3.7,0.7
					c-2.1-0.4-3.6-2.1-3.9-4.2H13.2z"/>
			</g>
		</g>
		<g>
			<g>
				<g>
					<path class="st0" d="M37.1,33H8.9c-0.5,0-0.9-0.2-1.2-0.6L7,31.2c0-0.1,0-0.2,0-0.2c0-0.1,0.1-0.1,0.2-0.1h11.6
						c0.1,0,0.1,0,0.2,0.1c0.2,0.3,0.5,0.4,0.9,0.4h6.2c0.3,0,0.7-0.2,0.9-0.4c0-0.1,0.1-0.1,0.2-0.1h11.6c0.1,0,0.2,0,0.2,0.1
						c0,0.1,0,0.2,0,0.2l-0.7,1.1C38.1,32.8,37.6,33,37.1,33z"/>
				</g>
			</g>
			<g>
				<path class="st1" d="M37.1,33H8.9c-0.5,0-0.9-0.2-1.2-0.6L7,31.2c0-0.1,0-0.2,0-0.2c0-0.1,0.1-0.1,0.2-0.1h11.6
					c0.1,0,0.1,0,0.2,0.1c0.2,0.3,0.5,0.4,0.9,0.4h6.2c0.3,0,0.7-0.2,0.9-0.4c0-0.1,0.1-0.1,0.2-0.1h11.6c0.1,0,0.2,0,0.2,0.1
					c0,0.1,0,0.2,0,0.2l-0.7,1.1C38.1,32.8,37.6,33,37.1,33z M7.6,31.4l0.5,0.8c0.2,0.3,0.5,0.4,0.8,0.4h28.3c0.3,0,0.6-0.2,0.8-0.4
					l0.5-0.8H27.3c-0.3,0.3-0.7,0.5-1.2,0.5h-6.2c-0.4,0-0.9-0.2-1.2-0.5H7.6z"/>
			</g>
		</g>
	</g>
	<g>
		<path class="st0" d="M29.2,15.5c0-0.2,0-0.5,0-0.7l1.7-1.2c-0.1-0.6-0.3-1.3-0.6-1.9l-2.1,0.1c-0.1-0.2-0.3-0.4-0.4-0.6l0.7-2
			c-0.5-0.4-1-0.8-1.6-1.1l-1.6,1.3c-0.1,0-0.2-0.1-0.3-0.1c-0.1,0-0.2-0.1-0.3-0.1l-0.6-2c-0.7-0.1-1.3-0.1-2,0l-0.6,2
			c-0.2,0.1-0.5,0.1-0.7,0.2L19,8.2c-0.6,0.3-1.1,0.7-1.6,1.2l0.7,2c-0.1,0.2-0.3,0.4-0.4,0.6l-2.1,0c-0.1,0.3-0.3,0.6-0.4,0.9
			c-0.1,0.3-0.2,0.6-0.2,1l1.7,1.2c0,0.2,0,0.5,0,0.7l-1.7,1.2c0.1,0.6,0.4,1.3,0.6,1.9l2.1-0.1c0.1,0.2,0.3,0.4,0.4,0.6l-0.7,2
			c0.5,0.4,1,0.8,1.6,1.1l1.6-1.3c0.1,0,0.2,0.1,0.3,0.1c0.1,0,0.2,0.1,0.3,0.1l0.6,2c0.7,0.1,1.3,0.1,2,0l0.6-2
			c0.2-0.1,0.5-0.1,0.7-0.2l1.7,1.2c0.6-0.3,1.1-0.7,1.6-1.2l-0.7-2c0.1-0.2,0.3-0.4,0.4-0.6l2.1,0c0.1-0.3,0.3-0.6,0.4-0.9
			c0.1-0.3,0.2-0.6,0.2-1L29.2,15.5z M26.4,16.3c-0.6,1.9-2.6,2.9-4.5,2.3C20.1,18,19,16,19.6,14.2c0.6-1.9,2.6-2.9,4.5-2.3
			C25.9,12.4,27,14.4,26.4,16.3z"/>
		<path class="st1" d="M23,23.5c-0.3,0-0.6,0-0.9-0.1c-0.1,0-0.2-0.1-0.2-0.2l-0.6-1.9c-0.1,0-0.1,0-0.2-0.1c-0.1,0-0.2-0.1-0.2-0.1
			l-1.5,1.2c-0.1,0.1-0.2,0.1-0.2,0c-0.6-0.3-1.1-0.7-1.6-1.2c-0.1-0.1-0.1-0.2-0.1-0.2l0.6-1.8c-0.1-0.1-0.2-0.3-0.3-0.4l-1.9,0.1
			c-0.1,0-0.2,0-0.2-0.1c-0.3-0.6-0.5-1.3-0.7-1.9c0-0.1,0-0.2,0.1-0.2l1.6-1.1c0-0.1,0-0.3,0-0.5L15,14c-0.1,0-0.1-0.1-0.1-0.2
			c0.1-0.4,0.1-0.7,0.2-1c0.1-0.3,0.2-0.6,0.4-0.9c0-0.1,0.1-0.1,0.2-0.1l2,0c0.1-0.1,0.2-0.3,0.3-0.4l-0.7-1.8c0-0.1,0-0.2,0.1-0.2
			c0.5-0.5,1-0.9,1.6-1.2c0.1,0,0.2,0,0.2,0l1.6,1.2c0.1-0.1,0.3-0.1,0.5-0.1l0.5-1.9c0-0.1,0.1-0.2,0.2-0.2c0.7-0.1,1.4-0.1,2,0
			c0.1,0,0.2,0.1,0.2,0.2l0.6,1.9c0.1,0,0.2,0,0.2,0.1c0.1,0,0.1,0.1,0.2,0.1L26.7,8c0.1-0.1,0.2-0.1,0.2,0c0.6,0.3,1.1,0.7,1.6,1.2
			c0.1,0.1,0.1,0.2,0.1,0.2L28,11.2c0.1,0.1,0.2,0.3,0.3,0.4l1.9-0.1c0.1,0,0.2,0,0.2,0.1c0.3,0.6,0.5,1.3,0.6,1.9
			c0,0.1,0,0.2-0.1,0.2l-1.6,1.1c0,0.2,0,0.3,0,0.5l1.6,1.1c0.1,0.1,0.1,0.1,0.1,0.2c-0.1,0.4-0.1,0.7-0.2,1
			c-0.1,0.3-0.2,0.6-0.4,0.9c0,0.1-0.1,0.1-0.2,0.1l-2,0c-0.1,0.1-0.2,0.2-0.3,0.4l0.7,1.8c0,0.1,0,0.2-0.1,0.2
			c-0.5,0.5-1,0.9-1.6,1.2c-0.1,0-0.2,0-0.2,0l-1.6-1.2c-0.1,0.1-0.3,0.1-0.5,0.1l-0.5,1.9c0,0.1-0.1,0.2-0.2,0.2
			C23.7,23.5,23.3,23.5,23,23.5z M22.3,23c0.5,0,1.1,0,1.6,0l0.5-1.9c0-0.1,0.1-0.1,0.2-0.2c0.3-0.1,0.5-0.1,0.6-0.2
			c0.1,0,0.2,0,0.2,0l1.5,1.2c0.5-0.3,0.9-0.6,1.3-1l-0.7-1.8c0-0.1,0-0.2,0-0.2c0.2-0.2,0.3-0.4,0.4-0.6c0-0.1,0.1-0.1,0.2-0.1
			l1.9,0c0.1-0.3,0.2-0.5,0.3-0.8c0.1-0.2,0.1-0.5,0.2-0.8L29,15.7c-0.1,0-0.1-0.1-0.1-0.2c0-0.2,0-0.5,0-0.7c0-0.1,0-0.2,0.1-0.2
			l1.6-1.1c-0.1-0.5-0.3-1-0.5-1.5l-1.9,0.1c-0.1,0-0.2,0-0.2-0.1c-0.1-0.2-0.2-0.3-0.4-0.5c-0.1-0.1-0.1-0.1,0-0.2l0.6-1.8
			c-0.4-0.4-0.8-0.7-1.3-0.9l-1.5,1.2c-0.1,0-0.1,0.1-0.2,0l-0.1,0c-0.1,0-0.1-0.1-0.2-0.1c-0.1,0-0.2,0-0.3-0.1l-0.1,0
			c-0.1,0-0.1-0.1-0.2-0.2l-0.6-1.9c-0.5,0-1.1,0-1.6,0l-0.5,1.9c0,0.1-0.1,0.1-0.2,0.2c-0.3,0.1-0.5,0.1-0.6,0.2
			c-0.1,0-0.2,0-0.2,0L19,8.5c-0.5,0.3-0.9,0.6-1.3,1l0.7,1.8c0,0.1,0,0.2,0,0.2c-0.1,0.2-0.3,0.3-0.4,0.6c0,0.1-0.1,0.1-0.2,0.1
			l-1.9,0c-0.1,0.3-0.2,0.5-0.3,0.8c-0.1,0.2-0.1,0.5-0.2,0.8l1.6,1.1c0.1,0,0.1,0.1,0.1,0.2c0,0.2,0,0.5,0,0.7c0,0.1,0,0.2-0.1,0.2
			l-1.6,1.1c0.1,0.5,0.3,1,0.5,1.5l1.9-0.1c0.1,0,0.2,0,0.2,0.1c0.1,0.2,0.2,0.3,0.4,0.5c0.1,0.1,0.1,0.1,0,0.2l-0.6,1.8
			c0.4,0.4,0.8,0.7,1.3,0.9l1.5-1.2c0.1,0,0.1-0.1,0.2,0l0.1,0c0.1,0,0.1,0.1,0.2,0.1c0.1,0,0.2,0.1,0.3,0.1c0.1,0,0.2,0.1,0.2,0.2
			L22.3,23z M23,19c-0.4,0-0.8-0.1-1.1-0.2c-2-0.6-3.1-2.8-2.5-4.7c0.6-2,2.8-3.1,4.7-2.5c2,0.6,3.1,2.8,2.5,4.7
			c-0.3,1-1,1.8-1.9,2.2C24.2,18.9,23.6,19,23,19z M23,11.9c-1.4,0-2.7,0.9-3.2,2.3c-0.5,1.8,0.4,3.6,2.2,4.2
			c0.8,0.3,1.8,0.2,2.5-0.2c0.8-0.4,1.4-1.1,1.6-2h0c0.5-1.8-0.4-3.6-2.2-4.2C23.7,11.9,23.3,11.9,23,11.9z"/>
		<g>
			<path class="st1" d="M23,16.4c-0.1,0-0.2-0.1-0.2-0.2v-2c0-0.1,0.1-0.2,0.2-0.2c0.1,0,0.2,0.1,0.2,0.2v2
				C23.2,16.3,23.1,16.4,23,16.4z"/>
		</g>
		<g>
			<path class="st1" d="M24,15.5h-2c-0.1,0-0.2-0.1-0.2-0.2c0-0.1,0.1-0.2,0.2-0.2h2c0.1,0,0.2,0.1,0.2,0.2
				C24.2,15.4,24.1,15.5,24,15.5z"/>
		</g>
		<g>
			<path class="st1" d="M23,20.1c-0.3,0-0.6,0-1-0.1c-1.3-0.3-2.4-1-3.1-2.1c-0.7-1.1-1-2.4-0.7-3.7c0.5-2.6,3.1-4.4,5.8-3.8
				c2.6,0.5,4.4,3.1,3.8,5.8l0,0c-0.3,1.3-1,2.4-2.1,3.1C24.9,19.8,24,20.1,23,20.1z M23,10.8c-2.1,0-3.9,1.5-4.4,3.6
				c-0.2,1.2,0,2.4,0.7,3.3c0.7,1,1.7,1.7,2.8,1.9c1.2,0.2,2.4,0,3.3-0.7c1-0.7,1.7-1.7,1.9-2.8l0,0c0.5-2.4-1.1-4.8-3.5-5.2
				C23.6,10.8,23.3,10.8,23,10.8z"/>
		</g>
	</g>
</g>
</svg>
